Aide à la prise en main,Détails,Fonction,Libre,Libre.client,Libre.serveur,Lien vers le code,Nb de développeurs,Nom de la licence,Outil,URL[0],URL[1],URL[2]
,Outil open source de démocratie liquide construit pour le parti pirate pour que ses membres puissent décider du programme du parti.,Prise de décision et votes,True,,,,,,GetOpinionated,http://opinion.pirateparty.be/proposals/,,
,"""C'est un réseau social libre et open source cherchant à évoluer le plus démocratiquement possible, pensé comme une plateforme pour le gouvernement, et structuré pour correspondre à notre réalité"" ""... avec des administrateurs de groupes pouvant être élus... par tirage au sort !""","réseau social, votes à points",True,,,https://github.com/ggouv,1,GNU GPL v2,ggouv,http://ggouv.fr/,,
,"Forum permettant le débat. Ajout de module de sondage, wiki possible. A été par exemple mis en place pour animer des discussions sur le logiciel libre et les données ouvertes : <a rel=""nofollow"" class=""external free"" href=""https://forum.etalab.gouv.fr/"">https://forum.etalab.gouv.fr/</a> en France, utilisé aussi à Taïwan lors du mouvement #OccupyCongress.",Organisation de débats,True,,,https://github.com/discourse/discourse,1000,GNU GPL,Discourse,https://www.discourse.org/,,
,"Outil à lancer sur un navigateur - Basé sur Persona qui s'arrête, cet outil s'arrête le 1er Juin 2016 ! Dommage",,True,,,,,,Outils pour animer des AG / Prendre des décisions,https://intertwinkles.org/,,
,"Plateforme de question / réponse basée sur Drupal, pratique pour apporter de la démocratie dans des structures (réalisé par l'équipe de <a rel=""nofollow"" class=""external free"" href=""https://questionnezvoselus.org/"">https://questionnezvoselus.org/</a>). Idée d'utilisation : créer un profil par commission, ainsi tout le monde pourrait interpeller chacune des commissions.",Organisation de débats,True,,,,,MIT,Open Dialog,http://open-dialog.fr/,,
,,Création de communauté sur mesure / réseau social / sur Wordpress,,,,,,,Buddy Press,https://buddypress.org/,,
"L'appli est dispo pour iphone, bientôt sur android. Elle dépend des comptes twitter.
<p>2 cas de figures:
</p><p>- question ouverte : n'importe qui peut y répondre
</p><p>- question destinée à quelqu'un de particulier seul cette personne pourra répondre
</p><p>L'application peut être utilisée en micro trottoir, étude terrain, ou encore à distance (n'importe qui peut poser la question de n'importe où). Elle a été pensée pour les journalistes, médias, citoyens, pour faire pression aux politiciens etc
</p><p>Objectifs: permet dialogues, interviews, questions réponses, micro trottoirs...
</p><p>Diffusion de bonnes pratiques, diffusion des réalités sur le terrain des mouvements citoyens (ND et autres), recherche de solutions...
</p><p>Mais surtout, informer les personnes qui ignorent la réalité, ont des préjugés et qui ne sont pas forcément proche de ces initiatives. Les vidéos seront relayées librement sur tous supports internet, permettant de diffuser les informations au-delà du cercle ""d'initiés""
</p>","Questions et Réponses; l'appli permet des interviews vidéo. Les questions peuvent être posées  via l'application elle-même mais aussi via, Twitter, Facebook, e-mail, SMS et Whatsapp, pour recevoir une réponse filmée via l'appli. Les vidéos peuvent ensuite être partagées partout sur internet. L'objectif est de permettre aux personnes externes ne connaissant pas le mouvement de poser des questions et recevoir des réponses. L'utilisation de cette appli qui n'est pas libre permet de justement toucher ces personnes qui ne sont pas forcément adeptes des solutions libres et de les informer.
<p>Projets: <a rel=""nofollow"" class=""external free"" href=""https://www.loomio.org/d/pBuzGKZT/projet-permettant-aux-citoyens-fran-ais-de-s-informer-objectivement-sur-le-mouvement"">https://www.loomio.org/d/pBuzGKZT/projet-permettant-aux-citoyens-fran-ais-de-s-informer-objectivement-sur-le-mouvement</a>
</p>",application d'interviews vidéo,False,,,,,,Qanda,https://itunes.apple.com/fr/app/id1055846356,http://qanda.co/,
,Messagerie militante et hautement sécurisée,Messagerie,True,,,https://github.com/riseupnet/riseup_help,100,,Riseup,https://mail.riseup.net/rc/,,
,"Permet de passer des appels et envoyer des messages de façon sécurisée (avec chiffrement)
<p>Application disponible sur <a rel=""nofollow"" class=""external text"" href=""https://play.google.com/store/apps/details?id=org.thoughtcrime.securesms&amp;hl=fr"">Play store</a>, <a rel=""nofollow"" class=""external text"" href=""https://itunes.apple.com/fr/app/signal-private-messenger/id874139669?mt=8"">Apple store</a> et sur ordinateur via le <a rel=""nofollow"" class=""external text"" href=""https://chrome.google.com/webstore/detail/signal-private-messenger/bikioccmkafdpakkkcpdbppfkghcmihk"">Chrome web store</a> 
</p>",Messagerie,True,,,https://github.com/WhisperSystems/whispersystems.org,10,GPLv3,Signal,https://whispersystems.org,,
,Agenda alternatif,Agenda / Calendrier,True,,,https://demosphere.eu/fr/content/download,,AGPL V3,Demosphere,https://demosphere.eu/fr,,
"pour <a rel=""nofollow"" class=""external text"" href=""https://www.loomio.org/email_preferences"">régler les notification e-mails</a>",Outil en ligne permettant de prendre des décisions à plusieurs en choisissant le mode de scrutin - pensez à régler vos notifications e-mail,Démocratie / Prise de décision,True,,,https://github.com/loomio/loomio,,AGPL v3,Loomio,https://www.loomio.org/,,
,"Outil en ligne collaboratif de mindmapping plutôt agréable à utiliser et en français.
<p>Leur politique de confidentialité: <a rel=""nofollow"" class=""external free"" href=""https://coggle.it/privacy"">https://coggle.it/privacy</a>
</p>",MindMapping Collaboratif,False,,,,,,Coggle,,,
,Outil en ligne permettant de diffuser des fichier audio. Utilise des widget / plugin permettant d'inclure le player (lecteur) de la bande son n'importe où.,Son / Live Audio / broadcast,,,,,,,Mixlr,http://mixlr.com/,,
,"Outil en client lourd (et en ligne ?) permettant de faire des conférences vidéos à plusieurs, de chatter, de téléphonner, et d'autres fonctionnalités
<p>Plus d'infos : <a rel=""nofollow"" class=""external free"" href=""https://fr.wikipedia.org/wiki/Skype"">https://fr.wikipedia.org/wiki/Skype</a>
</p>",Vidéo conférence,False,,,,,,Skype,https://www.skype.com/fr/,,
,"Plus d'infos : <a rel=""nofollow"" class=""external free"" href=""https://fr.wikipedia.org/wiki/Microsoft_Visio"">https://fr.wikipedia.org/wiki/Microsoft_Visio</a>",Shémas / Diagrammes,False,,,,,,Visio,https://products.office.com/fr-fr/visio/,,
,"Voix et vidéo sécurisées, messagerie chiffrée, partage de documents, forums de discussion, chat.",,True,,,,,,Retroshare,http://retroshare.sourceforge.net/,,
,Outil en ligne permettant une écriture collaborative de cartes mentales (mind-map) simultanée mais inscription via Google,Carte mentale,True,,,https://github.com/mindmup,100,,Mindmup,https://drive.mindmup.com/,,
,,Forum de discussion,,,,,,,Reddit Podemos,https://www.reddit.com/r/podemos/,,
,"L'application Consul originellement développée par et pour la mairie de Madrid. Utilisé aussi par Podemos sur <a rel=""nofollow"" class=""external free"" href=""https://plaza.podemos.info/highlights"">https://plaza.podemos.info/highlights</a>",Permet de voter sur des décisions,True,,,,,,Consul,https://github.com/consul/consul,,
"Comment faire des retouches de base (redresser les perspective, gommer des éléments,...) : <a rel=""nofollow"" class=""external free"" href=""http://tousagiles.comptoir.net/wakka.php?wiki=PageRetouche"">http://tousagiles.comptoir.net/wakka.php?wiki=PageRetouche</a>","Outil permettant de créer des dessins professionnels, vectoriels (Photoshop-like), contient aussi des fonctionnalités pour retoucher des images. Prend en compte beaucoup de formats.
<p>Plus d'infos : <a rel=""nofollow"" class=""external free"" href=""https://fr.wikipedia.org/wiki/GIMP"">https://fr.wikipedia.org/wiki/GIMP</a>
</p>",Dessin / Graphisme,True,,,,,,Gimp,https://www.gimp.org/,,
,Outil permettant de débattre et de se mobiliser,Réseau social de démocratie participative,False,,,,,,Democras,http://www.democras.com,,
,"Outil nécessaire pour la gestion du projet au sens informatique, permet de planifier des tâches, remonter les incidents , ...",Gestion de projets et Ticket Incident,True,,,,,,Redmine,http://www.redmine.org/,,
,"LiquidFeedback est la plateforme de démocratie participative à la base un outil développé et utilisé par le PP allemand depuis 2009, qui est une proposition d'implémentation des principes de la ""Démocratie liquide"". Il est aussi utilisé en Autriche, en Suisse, en Suède, au Brésil, en Italie, et bientôt au PPEU. Pas de <a rel=""nofollow"" class=""external text"" href=""http://dev.liquidfeedback.org/trac/lf/report/28?sort=created&amp;asc=0"">tickets ouverts</a> depuis plus d'un an, <a rel=""nofollow"" class=""external text"" href=""http://dev.liquidfeedback.org/pipermail/main/"">liste de diffusion sans message</a> depuis plusieurs mois.
<p>Infos en français: <a rel=""nofollow"" class=""external free"" href=""https://wiki.partipirate.org/LiquidFeedback"">https://wiki.partipirate.org/LiquidFeedback</a>
</p>",Prise de décision et votes.,True,,,http://www.public-software-group.org/mercurial,?,MIT,LiquidFeedback,http://liquidfeedback.org/,,
,"Outil d'organisation utilisant la méthodologie KANBAN
<p>Plus d'info : <a rel=""nofollow"" class=""external free"" href=""https://fr.wikipedia.org/wiki/Trello"">https://fr.wikipedia.org/wiki/Trello</a>
</p>","Kanban, tableau",False,,,,,,Trello,https://trello.com/,,
,"Pour participer à distance aux assemblées, avec live stream, chat et comptabilisation des mains levées, alpha",Chat + votes pour assemblées,True,,,,,,Inseme,http://inseme.firebaseapp.com,,
,"Co-écriture d'un manifeste + cartographie géographique et internet des collectifs, lieux, médias, blogs, ≠ mouvances et mondes «alternatifs»","Manifeste, annuaire, cartographie",True,,,,2,,Utopies Concrètes,http://utopies-concretes.org,,
,Outil en ligne permettant de créer des schémas (comme dans Microsoft Visio),Shémas / Diagrammes,,,,,,,Draw.io,https://www.draw.io/,,
"Règles d'usage liste de discussion : <a rel=""nofollow"" class=""external free"" href=""http://www.multibao.org/RomainLalande/Cre-sol/Les_listes_de_discussion.md"">http://www.multibao.org/RomainLalande/Cre-sol/Les_listes_de_discussion.md</a>","Pour pouvoir avoir des mailing-list (discussion et diffusion) autant qu'on le souhaite, pour pouvoir avec des mails de contacts gérés par un groupe de personnes, pour avoir des archives des mails échangés, pour pouvoir avoir une logique de forum en ligne en ayant des fils de discussion au niveau des archives",Serveur de liste de discussion avec archive et capacité de répondre en ligne au message (logique quasi forum),True,,,,,,Mailman3 ou Mailman2 + Ponymail,http://wiki.list.org/Mailman3,https://lists.mailman3.org/,https://github.com/quenda/ponymail
,Appli pour smartphone de débat,Appli de délibération,False,,,,,,Stig,http://getstig.org,,
"a rel=""nofollow"" class=""external free"" href=""https://www.periscope.tv/RemyBuisine/"">https://www.periscope.tv/RemyBuisine/</a>""reporter mobile à <a href=""/wiki/Villes/Paris"" title=""Villes/Paris"" class=""mw-redirect"">Paris</a>","Réalisation de vidéo avec un appareil mobile et un compte twitter ; permet le streaming live, l'enregistrement restant disponible pendant les 24 heures suivantes.","Vidéo
Application Mobile",False,,,,,,Periscope,http://periscope.tv/,,
,Générer automatiquement et sans frais des certificats reconnus par les principaux navigateurs.,Génération de certificats pour sites https,True,,,,,,Let's Encrypt,https://letsencrypt.org/,,
,Site permettant de poser rapidement une question avec plusieurs réponses proposées (choix multiple etc disponible).,Vote/Sondage rapide et instantané,,,,,,,StrawPoll,http://strawpoll.me/,,
,Outil en ligne permettant une écriture collaborative en offline et crypté depuis le navigateur,Éditeur de texte,True,,,https://github.com/TailorDev/monod,10000,CC 2,Monod,https://monod.lelab.tailordev.fr,,
,"Les sources sont disponibles <a rel=""nofollow"" class=""external text"" href=""http://wiki.freelab.cc/start?tab_details=view&amp;image=agri%3Atracteurs%3Amassey_ferguson%3Amf_165_vues_eclatees_04.pdf&amp;ns=agri%3Atracteurs%3Amassey_ferguson&amp;do=media"">ici.</a>
<p>Chat sécurisé
</p>",Application Mobile,True,,,,,,FreeLab,https://play.google.com/store/search?q=nuitdebout&c=apps,,
,"Plateforme en ligne permettant de discuter, s’informer, d'émettre des propositions et de s’organiser.",Réseau social pour créer et gérer les propositions,False,,,,,,nous rassemble,https://nuitdebout.nousrassemble.com,,
,"Outil en ligne proposé par Google permettant de faire des conférences vidéos à plusieurs, de chatter, et d'autres fonctionnalités
<p>Plus d'infos : <a rel=""nofollow"" class=""external free"" href=""https://fr.wikipedia.org/wiki/Google_Hangouts"">https://fr.wikipedia.org/wiki/Google_Hangouts</a>
</p>",Vidéo conférence,False,,,,,,Hangouts,https://hangouts.google.com/?hl=fr,,
,Doodle-like et plus,Sondage / choix de date,True,,,https://git.framasoft.org/framasoft/framadate/tree/master,,CeCILL-B,Framadate,https://framadate.org/,,
,"Outil en ligne permettant de structurer un débat dans une communauté, en faisant émerger des idées, et en les débattant collectivement.",Démocratie / Emergence d'idées,True,,,https://github.com/ImaginationForPeople/assembl,10,,Assembl,http://assembl.org/,,
"a rel=""nofollow"" class=""external free"" href=""https://represent.me/api"">https://represent.me/api</a>
<p><a rel=""nofollow"" class=""external free"" href=""https://represent.me/pages/faq/"">https://represent.me/pages/faq/</a>
</p><p>@representlive
</p>","Plateforme ouvert avec API a discuter, voter, er voir l'analyse et les idées. Direction: démocratie liquide.","Démocratie / Prise de décision, débats et votes.",False,,,,5,,Represent,https://represent.me,https://represent.me,
"a rel=""nofollow"" class=""external free"" href=""https://www.demodyne.org/pages/help"">https://www.demodyne.org/pages/help</a>
<p><a rel=""nofollow"" class=""external free"" href=""https://forum.demodyne.org/showthread.php?tid=6"">https://forum.demodyne.org/showthread.php?tid=6</a>
</p><p><a rel=""nofollow"" class=""external free"" href=""https://vimeo.com/demodyne"">https://vimeo.com/demodyne</a>
</p><p>support@demodyne.org
</p>","Plateforme web de co-contruction de programme en continu directement par les citoyens pour leur ville, région ou pays (par agrégation /corrélation de scénarios). [Association a but non-lucratif].",Co-construction de programme politique en continu,True,,,,3,AGPLv3,DEMODYNE,https://www.demodyne.org,,
,Outil d'organisation utilisant la méthodologie KANBAN (Trello-like),"Kanban, tableau",True,,,https://github.com/wekan/wekan,1000,MIT,Wekan,http://wekan.io,,
,Réaliser des vidéos synchronisées avec les autres utilisateurs proches,"Vidéo
Application Mobile",False,,,,,,Crowdflik,http://www.crowdflik.com/,,
,Réseau social libre (Facebook-like),Réseau social,True,,,https://github.com/diaspora/diaspora/,1000,AGPL,Diaspora,https://diasporafoundation.org/,,
,"Permet de créer quatre types d'entité : Citoyen, Organisations (Asso, Groupe Informel, entreprise, Service Publique) , tout est toujours Géolocalisé
<p>Chaque entité peut avoir ces membres, contributeurs ou participants, et un mur de discussion permet d’échanger de façon ciblée.
</p><p>Avec une architecture ouverte, modulaire, interopérable, le projet est basé sur l'ODB : Open Database (sémantique et multi contributeur) et possède une API REST pour faire communiquer les différentes instances (mongoDB, PHP, meteor)
</p>","Réseau sociétal
Gestion de personnes , de groupes, 
événements et projets",True,,,https://github.com/pixelhumain/communecter,10,Apache 2,Communecter,https://www.communecter.org/,,
,Site internet permettant de trouver des logiciels et apps alternatifs en comparaison d'un logiciel que l'on souhaite remplacer. Utile pour trouver des solutions libres.,Moteur de recherche d'apps,,,,,,,AlternativeTo,http://alternativeto.net/,,
,Outil en ligne permettant de choisir une date à plusieurs,Sondage / choix de date,False,,,,,,Doodle,http://doodle.com/fr/,,
,"Dessin vectoriel
<p>Plus d'infos : <a rel=""nofollow"" class=""external free"" href=""https://fr.wikipedia.org/wiki/Inkscape"">https://fr.wikipedia.org/wiki/Inkscape</a>
</p>",Dessin / Graphisme,True,,,,,,Inkscape,https://inkscape.org/fr/,,
,"Outil en client lourd permettant de faire des audio conférences
<p>Plus d'info : <a rel=""nofollow"" class=""external free"" href=""https://fr.wikipedia.org/wiki/Mumble"">https://fr.wikipedia.org/wiki/Mumble</a>
</p>",Audio conférence,True,,,,,,Mumble,http://www.mumble.com/,,
,"Gestion des contacts, Gestion des adhérents, Gestion des événements , Gestion des dons, Gestion des Communications , Gestion des Compte Rendus, ... beaucoup de modules sont installable","système de gestion des associations et des organisations sans but lucratif, conçu pour le web.",True,,,https://github.com/civicrm,,,CiviCRM,http://www.civicrmfr.org/,,
"a rel=""nofollow"" class=""external free"" href=""https://atom.io/docs"">https://atom.io/docs</a>",Editeur de texte et de code open-source avec un large support de langages.,Editeur de texte,True,,,https://github.com/atom/atom,,MIT,Atom,https://atom.io/,,
,Outil d'organisation en utilisant la méthodo KANBAN (Trello-like),"Kanban, tableau",True,,,https://github.com/zaralger/framaBoard,0,MIT,Framaboard,https://framaboard.org/,,
,Outil open source utile pour traduire en français les fichiers langages d'app qui utilisent gettext (.po .pot),Outil de traduction web/app,True,,,,,,Poedit,https://poedit.net/,,
"a rel=""nofollow"" class=""external free"" href=""http://www.icecast.org/docs/"">http://www.icecast.org/docs/</a> <a rel=""nofollow"" class=""external free"" href=""http://www.icecast.org/faq"">http://www.icecast.org/faq</a>","Serveur de streaming multimédia. Multiplateforme (Linux, Windows, Arm)",Streaming,True,,,http://www.icecast.org/download/,,GPL,Icecast 2,http://www.icecast.org/,,
,"Réseau social libre (facebook-like) hébergé par <a rel=""nofollow"" class=""external free"" href=""http://framasoft.net"">http://framasoft.net</a> en France. Utilise le projet libre Diaspora",Réseau social,True,,,https://github.com/SansPseudoFix/framasphere,0,AGPL,Framasphere,http://framasphere.org,,
,,Micro-blogging décentralisé,,,,,,,Twister,http://twister.net.co,,
,Outil en ligne développé en France permettant de se réunir par webcam en nombre illimité de personnes et partager des videos et présentations.,Vidéo conférence,False,,,,,,Glowbl,http://www.glowbl.com/,,
"est sur <a rel=""nofollow"" class=""external free"" href=""https://participate.nova-ideo.org/"">https://participate.nova-ideo.org/</a>video d'illustration : <a rel=""nofollow"" class=""external free"" href=""http://video-pyconfr2015.paulla.asso.fr/112_-_Michael_Launay_-_Nova-Ideo,_une_boite_a_idees_collaborative.html"">http://video-pyconfr2015.paulla.asso.fr/112_-_Michael_Launay_-_Nova-Ideo,_une_boite_a_idees_collaborative.html</a>","Vous souhaitez créer une dynamique d'innovation? Conserver les idées des membres de votre structure? Optimiser vos prises de décision? L'ambition de Nova-Ideo.org est de fournir un processus complet permettant à des groupes de travail de transformer des idées en propositions abouties, via le service en ligne, grâce à un système de sessions d'amendements et de votes.",Démocratie / Emergence d'idées / Innovation,True,,,https://github.com/ecreall/nova-ideo,,AGPL v3,Nova-Ideo,http://nova-ideo.org/,,
,"Plateforme permettant de générer des sites web assez rapidement. Fonctionne avec des plugins/extentions pouvant être libre et/ou open-source
<p>Plus d'info : <a rel=""nofollow"" class=""external free"" href=""https://fr.wikipedia.org/wiki/Drupal"">https://fr.wikipedia.org/wiki/Drupal</a>
</p>",CMS / Contenus / rubriques - éditorialisation,True,,,,,,Drupal,https://www.drupal.org/,,
"a rel=""nofollow"" class=""external free"" href=""http://www.icecast.org/ices/docs/ices-2.0.2/"">http://www.icecast.org/ices/docs/ices-2.0.2/</a>",Client source pour serveur de streaming Icecast 2. *nix seulement.,Streaming,True,,,http://downloads.us.xiph.org/releases/ices/ices-2.0.2.tar.bz2,,,IceS 2,http://www.icecast.org/ices/,,
,Permet de prévoir le nombre de personnes impliquées dans une mobilisation,Site de comptage,,,,,,,On est combien,http://onestcombien.fr,,
,"Un outil d'audio et visio conf, multiplateforme aussi bien en desktop qu'en mobile.","Audio et vidéo conférence, téléphonie SIP",True,,,,,,jitsi,https://jitsi.org/,,
"a rel=""nofollow"" class=""external free"" href=""http://www.agendadulibre.org/application/infos"">http://www.agendadulibre.org/application/infos</a>","Gestion d'événements et d'organisations, géolocalisation avec OSM, exportable sous plusieurs formats",Agenda / Calendrier,True,,,https://git.framasoft.org/agenda-libre/agenda-libre-ruby/issues/71,,AGPL v3,Agenda du Libre,http://agendadulibre.org,,
,"Réseau social propriétaire. Vous pouvez y partager des petits messages appelés ""tweets"".
<p>Plus d'info : <a rel=""nofollow"" class=""external free"" href=""https://fr.wikipedia.org/wiki/Twitter"">https://fr.wikipedia.org/wiki/Twitter</a> 
</p>",Réseau social,False,,,,,,Twitter,https://twitter.com,,
"a rel=""nofollow"" class=""external free"" href=""http://docs.democracyos.org/"">http://docs.democracyos.org/</a>","DemocracyOS, permet de proposer des résolutions au vote et de les débattre le fil d'argument fonctionne un peu comme reddit on peut downvoter et upvoter les arguments.   Infos : (Paris, contact(a)democracyos.eu,  dev stack : Node.js, js,mongodb, github, heroku. Exports des données en json)",Organisation de débats et votes.,True,,,https://github.com/democracy-os-fr/democracyos,100,"GNU
GPL v3",DemocracyOS,http://democracyos.eu/,,
,"Contrairement à d'autres services d'e-mail, Openmailbox est basé sur du code open source. En plus, le système de registre ne compromet pas la vie privée, et il ne stocke pas les adresses IP. <a rel=""nofollow"" class=""external text"" href=""http://quick-tutoriel.com/openmailbox-un-service-de-mail-anonyme-et-securise/"">Guide d'utilisation.</a>",Messagerie,True,,,https://github.com/f0go/OpenMailbox,1,,Openmailbox,https://www.openmailbox.org/,,
,Réseau social open source et customizable par des plugins,Réseau social,True,,,https://bitbucket.org/oxwall/public/src,10,CPAL,Oxwall,http://www.oxwall.org/,,
"a rel=""nofollow"" class=""external free"" href=""http://www.multibao.org/RomainLalande/Cre-sol/OpenAgenda_:_agendas_collaboratifs_ouverts.md"">http://www.multibao.org/RomainLalande/Cre-sol/OpenAgenda_:_agendas_collaboratifs_ouverts.md</a>",Agenda compatible avec de nombreux formats de calendriers,Agenda / Calendrier,False,,,,100,OL,OpenAgenda,https://openagenda.com/,,
"Des groupes d'intérêts Nuit Debout peuvent être créés dans chaque ville, banlieue, village, campagne ppour communiquer localement avec les citoyens.","Meilleur réseau en France, dans un esprit de partage, de collaboration, de mutualisation",Réseau social de proximité,,,,,,,Mon pti voisinage,https://www.monptivoisinage.com/,,
,"Outil en ligne de chat, intégrant plusieurs channel par compte
<p>Plus d'infos : <a rel=""nofollow"" class=""external free"" href=""https://fr.wikipedia.org/wiki/Slack_(plateforme)"">https://fr.wikipedia.org/wiki/Slack_(plateforme)</a>
</p>",Chat / Messagerie instantanée,False,,,,,,Slack,https://slack.com/,,
"Outil proposé par l'IRI. Développements sont open source sous licence Cecil.
<p>Prises de parole filmées sinon Polemic tweet n’a pas de sens.
On publie ensuite la vidéo indexée par les tweets et les participants à Nuit debout peuvent continuer à débattre en ligne après coup avec le même protocole + cartes mentales Renkan. Si il y a un animateur pour motiver un peu les contributions ca peut être intéressant.
</p>","Outil de réaction en direct, que l'on soit sur place ou pas + continuer le débat une fois terminer + visualiser les moyens forts / les réactions",Outil,True,,,,,,Polemic tweet,http://polemictweet.com/about.php,,
,Collecter des fonds sans structure jurique en toute transparence. (contact : xdamman(@)opencollective.com),Financement,True,,,https://github.com/opencollective/opencollective,1000,MIT,Open Collective,https://opencollective.com,,
,"Réseau social libre. Contrairement a Diaspora, il a l'avantage d'être entièrement basé sur XMPP.",Réseau social,True,,,https://github.com/movim/movim,10,APGL,Movim,https://movim.eu/,,
"a rel=""nofollow"" class=""external free"" href=""https://www.youtube.com/watch?v=Us5x5LqP6O4&amp;list=PLt4ysJpUlgA9-f6kPyDFbEb7WqcRYXGlf"">https://www.youtube.com/watch?v=Us5x5LqP6O4&amp;list=PLt4ysJpUlgA9-f6kPyDFbEb7WqcRYXGlf</a>","Décentralisation et redondance du stockage des données dans un ""cloud""",Système de stockage distribué (RAID Virtuel),True,,,https://github.com/tahoe-lafs/,5,GPL / TGPPL,Tahoe-LAFS,https://www.tahoe-lafs.org/trac/tahoe-lafs,,
,"Application de synchronisation de fichiers pair à pair libre disponible pour Windows, Mac, Linux, iOS, Android, Solaris, Darwin et BSD.3
<p>La sécurité et l'intégrité des données sont intégrées dans la conception du logiciel. 
</p><p>S'inspire du logiciel propriétaire Sync de BitTorrent.
</p>",Synchronisation de fichiers pair à pair,True,,,https://github.com/syncthing/syncthing,,MPL 2.0,Syncthing,https://syncthing.net/,,
"Exemple d'utilisation:
<p><a rel=""nofollow"" class=""external free"" href=""https://www.republique-numerique.fr/project/projet-de-loi-numerique/consultation/consultation"">https://www.republique-numerique.fr/project/projet-de-loi-numerique/consultation/consultation</a>
</p>","Plateforme web permettant la consultation publique de textes, amendements, lois ou quoi que se soit. Plus poussé que Loomio dans la contre argumentation des articles.",Consultation publique / Prise de décision,False,,,,,,Cap Collectif,http://www.cap-collectif.com/,,
,Client pour XMPP/Jabber pour android bien fichu et beau,Messagerie,True,,,,,,Conversations,https://github.com/siacs/Conversations,,
,DB document oriented,DB big data,,False,True,,,,ElasticSearch,http://elasticsearch.com,,
,"Réseau social propriétaire. Les données que vous y mettez appartiennent à Facebook.
<p>Plus d'info : <a rel=""nofollow"" class=""external free"" href=""https://fr.wikipedia.org/wiki/Facebook"">https://fr.wikipedia.org/wiki/Facebook</a>
</p>",Réseau social,False,,,,,,Facebook,https://fr-fr.facebook.com/,,
"a rel=""nofollow"" class=""external free"" href=""http://nuitdebout.aymerick.fr:5080/"">http://nuitdebout.aymerick.fr:5080/</a>","Solution de vidéo/audio conference permettant la tenue d'AG / commissions virtuelles jusqu'à 120 utilisateurs (pour OpenMeetings)- notamment pour les personnes à mobilité réduite, les expats, les ruraux etc.",Audio/Vidéo Conference - LMS,True,,,,,,OpenMeeting ( ou autre ),http://www.openmeetings.org,,
,"""Un endroit où signaler les problèmes, proposer des solutions, discuter des alternatives, élaborer une synthèse commune. Un puissant outil pour développer l'intelligence collective.""","réseau social, votes",True,,,https://github.com/coorasse/Airesis,10,AGPL,Airesis,https://airesis.eu/,,
"a rel=""nofollow"" class=""external text"" href=""https://www.youtube.com/watch?v=1h9_cB9mPT8"">Vidéos</a>","Utilisé pour héberger le code du site nuitdebout.fr :
<p><a rel=""nofollow"" class=""external free"" href=""https://github.com/nuitdebout/nuitdebout.github.io"">https://github.com/nuitdebout/nuitdebout.github.io</a> 
</p><p>Plus d'info : <a rel=""nofollow"" class=""external free"" href=""https://fr.wikipedia.org/wiki/GitHub"">https://fr.wikipedia.org/wiki/GitHub</a>
</p>",Site de dépot de sources,False,,,https://github.com/github,10000,"ODC/
ODL",Github,https://github.com/nuitdebout/nuitdebout.github.io,,
"Intérêts, usages :<br>
<p>• informer des lieux de rassemblements, de mobilisations, d'actions ;<br>
• informer sur les besoins logistiques (matériel, nourriture) ;<br>
• prévenir et signaler les violences (casseurs, extrémistes, infiltrés), les dérapages éventuels des forces de l'ordre, donc prévenir et protéger les personnes situés dans un secteur ; <br>
et filmer / témoigner de ce qui se passe ;<br>
• les lieux de musique, de création artistique, de fête, pour finir sur une touche ouverte et joyeuse.
</p>","Rassemble sur une carte des rapports pour voir ce qui se passe, quand, et où.
<p>Informations collectées en temps réel via sms, email, twitter, l'app, le site web.
</p>","Cartographie de ""crises""",,,,,,,Ushahidi,https://www.ushahidi.com/,,
,"Forum de discussion permettant de discuter, s'organiser et s'informer.",Forum de discussion,True,,,https://github.com/reddit/,1000,CPAL 1,Reddit,https://www.reddit.com/r/nuitdebout/,,
,,solution de paiement sécurisée pour l'économie collaborative,,,,,,,Payname,https://payname.fr,,
,"Pour aggrèger du contenu (frontpage / ""media"") - pages - liens vers differents outils, éditorialisation - blog. Fonctionne avec des plugins/extentions pouvant être libre et/ou open-source
<p>Plus d'info : <a rel=""nofollow"" class=""external free"" href=""https://fr.wikipedia.org/wiki/WordPress"">https://fr.wikipedia.org/wiki/WordPress</a>
</p>",CMS / Contenus / rubriques - éditorialisation,True,,,,,,WordPress,http://wordpress.org,,
,"Créer des réseaux communautaires sur Android et iOS permettant de communiquer entre téléphone par Bluetooth, WiFi, etc. Connexion cryptée de bout en bout et messagerie privée.",Création et partage de réseau communautaire sans fil en peer-to-peer,False,,,,,,FireChat,http://opengarden.com/firechat/,,
,"Plus d'infos : <a rel=""nofollow"" class=""external free"" href=""https://fr.wikipedia.org/wiki/Gmail"">https://fr.wikipedia.org/wiki/Gmail</a>",Messagerie,False,,,,,,Gmail,https://mail.google.com,,
,"Plus d'infos : <a rel=""nofollow"" class=""external free"" href=""https://fr.wikipedia.org/wiki/Adobe_Photoshop"">https://fr.wikipedia.org/wiki/Adobe_Photoshop</a>",Dessin / Graphisme,False,,,,,,Photoshop,http://www.photoshop.com/,,
,Application de messagerie chiffrée. Permet conversation de groupe et création de channel.,Messagerie,,True,False,https://github.com/zhukov/webogram,1000,"GNU
GPL",Telegram,https://web.telegram.org/#/login,,
"exemple via la <a rel=""nofollow"" class=""external text"" href=""https://umap.openstreetmap.fr/en/map/nuit-debout-paris-plan-de-la-republique_80910#18/48.86760/2.36411"">cartographie de la place de la république</a> à <a href=""/wiki/Villes/Paris"" title=""Villes/Paris"" class=""mw-redirect"">Paris</a>Lien vers des tutos et exemples : <a rel=""nofollow"" class=""external free"" href=""http://savoirscommuns.comptoir.net/umap"">http://savoirscommuns.comptoir.net/umap</a>
<p>Les tutos de framacarte (qui utilise umap) <a rel=""nofollow"" class=""external free"" href=""http://framablog.org/2016/02/16/comment-consulter-une-framacarte-tutos-umap-14/"">http://framablog.org/2016/02/16/comment-consulter-une-framacarte-tutos-umap-14/</a>
</p><p><a rel=""nofollow"" class=""external text"" href=""https://wiki.openstreetmap.org/wiki/FR:UMap/Guide/"">Guide de Survie</a> / <a rel=""nofollow"" class=""external text"" href=""http://wiki.cartocite.fr/doku.php?id=umap:1_-_je_consulte_une_carte_umap"">Comprendre l'interface</a> / <a rel=""nofollow"" class=""external text"" href=""http://wiki.cartocite.fr/doku.php?id=umap:2_-_je_cree_ma_premiere_carte_umap"">Créer une carte simple</a> / <a rel=""nofollow"" class=""external text"" href=""http://wiki.cartocite.fr/doku.php?id=umap:3_-_j_utilise_un_compte_et_cree_une_belle_carte"">Personnaliser les pictos et les polygones</a> / <a rel=""nofollow"" class=""external text"" href=""http://wiki.cartocite.fr/doku.php?id=umap:4_-_je_modifie_et_personnalise_ma_carte"">Personnaliser l'apparence et l'interface</a> / <a rel=""nofollow"" class=""external text"" href=""https://wiki.openstreetmap.org/wiki/UMap#Tutorials"">Autres tutoriels et vidéos</a>
</p>","Cartographier vos <a href=""/wiki/Villes"" title=""Villes"">Villes</a> <a rel=""nofollow"" class=""external text"" href=""https://chat.nuitdebout.fr/"">#nuitdebout.fr</a>",Cartographie,True,,,https://github.com/umap-project/umap,,,Umap,,,
,"Un service dans le navigateur web, développé par une start-up norvégienne respectant la vie privée.",Audio et visio conférence,False,,,,,,appear.in,https://appear.in/,,
,Outil permettant de retranscrire les AG au format txt,Outil de voicetotext,,,,,,,Google speech,https://www.google.com/intl/fr/chrome/demos/speech.html,https://cloud.google.com/speech/,
,"Dépôt de sources, libre (GitHub-like)",Site de dépot de sources,True,,,https://github.com/gitlabhq/gitlabhq,1000,MIT,GitLab,https://about.gitlab.com/,,
Les développeurs assurent eux même le support en vidéo.,Envoyer des messages de 15 secondes à des groupes ou des contacts avec une jouabilité déconcertante. Aucune vidéo n'est stockée. C'est gratuit et français.,Messagerie Vidéo Mobile,False,,,,,,Tribe,http://tribe.pm/,,
,Chatter en direct en pouvant partager des fichiers assez légers qui seront gardés temporairement.,Chat + partage de fichiers temporaires,False,,,,,,Volafile,https://volafile.io/,,
"Concernant les données personnelles: la géolocalisation ne fonctionne pas en arrière plan, elle est utilisée uniquement si vous créez un itinéraire dans l'agenda de l'application. Pour ne pas être géolocalisé, désactiver la fonction ""position"" de votre téléphone. Les données de géoloc vont vers le serveur de goodbarber dont les conditions garanties que les données ne sont pas utilisées (article 21 personnal data de leurs cgu). Ce sont leurs clients (donc nous) qui sommes ""proprio"" des données. Et nous nous engagons à ne pas les divulguer ni à les vendre, ni à les louer à des tiers. Vous n'avez pas à vous loguer sur l'application: donc pas de récupération d'adresse mail ou de num de tèl ou de compte facebook ou twitter possible de notre part.","Application mobile  servant de portail vers les liens des différents outils et informations existants pour NUIT DEBOUT sur le web. *Les données ne sont pas collectées à des fins marketings, cette application a été réalisée bénévolement à l aide du CMS et du serveur Goodbarber (société Française)*","Application Mobile
Portail web vers les outils et sites NUIT DEBOUT",False,,,,,,Application mobile,https://play.google.com/store/apps/details?id=com.ouacom.nuitdebout&hl=fr,https://itunes.apple.com/fr/app/nuit-debout/id1103278797?mt=8,
"Règles d'usage listes de discussion : <a rel=""nofollow"" class=""external free"" href=""http://www.multibao.org/RomainLalande/Cre-sol/Les_listes_de_discussion.md"">http://www.multibao.org/RomainLalande/Cre-sol/Les_listes_de_discussion.md</a>",Listes largement paramétrables et très sécurisées,mailing liste,True,,,,,,Listes Riseup,http://lists.riseup.net/,,
,"Outil en ligne de chat, intégrant plusieurs channel par compte (Slack-like)",Chat / Messagerie instantanée,True,,,,,,Rocket.chat,https://rocket.chat/,,
"a rel=""nofollow"" class=""external free"" href=""http://www.co-ment.com/category/presentation/"">http://www.co-ment.com/category/presentation/</a>","Service web permettant la co-écriture de chartes, constitution, articles de loi etc. Voir par exemple <a rel=""nofollow"" class=""external free"" href=""https://lite.co-ment.com/text/lNPCgzeGHdV/view/"">https://lite.co-ment.com/text/lNPCgzeGHdV/view/</a>",Co-écriture de textes,True,,,https://github.com/co-ment/comt/,1,GNU AGPLv3+,co-ment,https://fr.wikipedia.org/wiki/Co-ment,,
,Outil en ligne permettant de diffuser des fichier audio. Utilise des widget / plugin permettant d'inclure le player (lecteur) de la bande son n'importe où.,Son / Live Audio / broadcast,False,,,,,,Soundcloud,https://soundcloud.com/,,
"a rel=""nofollow"" class=""external free"" href=""http://www.multibao.org/RomainLalande/Cre-sol/Les_Pads_:_ecriture_collaborative.md"">http://www.multibao.org/RomainLalande/Cre-sol/Les_Pads_:_ecriture_collaborative.md</a>",Outil en ligne permettant une écriture collaborative simultanée,Éditeur de texte,True,,,https://git.framasoft.org/framasoft/framapad/tree/master,,Apache 2,Framapad,https://framapad.org,,
,"Outil d'affichage de dashboards (tableaux, graphs, histogrammes, etc...)",Dashboards big data,,False,True,,,,Kibana,,,
,Outil en ligne permettant une écriture collaborative de cartes mentales (mind-map) non simultanée,Carte mentale,True,,,https://git.framasoft.org/framasoft/framindmap/tree/master,,WPL,Framindmap,https://framindmap.org/c/login,,
"a rel=""nofollow"" class=""external free"" href=""http://www.pubpub.org/pub/about"">http://www.pubpub.org/pub/about</a>","Service web permettant la co-écriture de chartes, constitution, articles de loi etc.  Voir par exemple <a rel=""nofollow"" class=""external free"" href=""http://constitucioncdmx.pubpub.org/pub/normas-int-derechos-humanos-loretta"">http://constitucioncdmx.pubpub.org/pub/normas-int-derechos-humanos-loretta</a>",Co-écriture de textes,True,,,https://github.com/pubpub/pubpub,10,GNU GPLv2,pubpub,http://www.pubpub.org/,,
