API,About,AppCivist Service 1,AppCivist Service 2,AppCivist Service 3,CivicTech or GeneralPurpose,Functions,Name,Source,Website (s),st Service 3
,Open source crowdfunding platform,Fundraising,,,CivicTech,Contribution and Decision Making,Selfstarter,https://github.com/lockitron/selfstarter,http://selfstarter.us/,
https://meta.discourse.org/t/discourse-api-documentation/22706,"Discourse is an open source platform for maintaining discussions, with a rich-editing formatting system for comments",Deliberation,,,General Purpose,,Discourse,https://github.com/discourse,http://www.discourse.org/,
,Herramienta WebMóvil que te sirve para conocer la agenda del día del Congreso en Paraguay.,,,,CivicTech,,Que se parla,,https://github.com/roskoff/queseparla,
,Design of bus stop shelters for bus stops,Proposal Making,Deliberation,Design Challenge,CivicTech,,Next Stop Design,,http://first.nextstopdesign.com/,
,"This is a system which publishes Neelie Kroes speeches in commentable format right after they are published. Ideally, people in the audience will be able to comment right after the speech, or at least during the conference.",,,,CivicTech,,Making Speeches Talk,,http://commentneelie.eu/,
,Understanding how governments spend money in our name,,,,CivicTech,,Open Spending,,https://openspending.org/,
http://wiki.openstreetmap.org/wiki/API,"Complete general purpose mapping system, created by people around the world, free to use and with an opensource licence",Mapping,,,CivicTech,Information Access,OpenStreetMap,http://wiki.openstreetmap.org/wiki/Getting_The_Source,http://www.openstreetmap.org/,
,Simple text editor to collaborate online in amking proposals. Seems to be powered by etherpad underneath,Proposal Making,,,General Purpose,,TitanPad,https://github.com/titanpad/titanpad,https://titanpad.com/,
LiquidFeedback,"Questa piattaforma permette ai cittadini di avanzare proposte al Parlamento per affrontare le emergenze politiche, economiche e sociali del paese.",Deliberation,,,CivicTech,,Tu Parlamento,LiquidFeedback,https://www.tuparlamento.it,
,Involve residents in decision-making processes and to demonstrate a municipality's commitment to citizen engagement. It provides non-estandar ways of controlling the budget by proposing changes in percentages or amounts destined to some things and see real time the impact of these changes.,Voting,Deliberation,Budgeting,CivicTech,Contribution and Decision Making,Citizen Budget,https://github.com/opennorth/citizenbudgetapp.com,http://www.citizenbudget.com/,
,Follow legislation materials,,,,CivicTech,,Councilmatic,,http://www.councilmatic.org/,
,"Privacy end-to-end, 1-html app for communication purposes, that also works offline",Mobilizing,,,CivicTech,,PassLok,https://github.com/fruiz500/passlok,https://passlok.com/,
,Report issues on public services,Reporting,Mapping,,CivicTech,,Fix my street,,http://www.fixmystreet.com/,
,"A platform to display state codes, court decisions, and information from legislative tracking services to make our laws understandable by regular people",,,,CivicTech,,The State Decoded,,http://www.statedecoded.com/,
,YouCaring is free online fundraising platform focused on solidarity causes whithout charging any kind of fee to fundraisers. It basically depends upon donations.,Fundraising,,,CivicTech,,YouCaring,,http://www.youcaring.com/,
,,Mobilizing,,,,,Riseup,,https://www.sigaint.org/,
,,,,,,,CitySDK,,http://www.citysdk.eu/,
https://api.crowdmap.com/developers/v1/,Report social problems,Mapping,,,CivicTech,Information Access,CrowdMap (Ushahidi),https://github.com/ushahidi/Crowdmap-Java,http://www.ushahidi.com/product/crowdmap/,
,"Loomio is tool for decision making, where discussions are organized within groups, always leading to a final proposal, that can be either accepted or rejected based on the votes of the group. Is free and open source",Deliberation,Proposal Making,Voting,CivicTech,Contribution and Decision Making,Loomio,https://github.com/loomio/loomio,https://www.loomio.org/,
,Find and map wheelchair-accesible toilets and parking spaces,Information,Reporting,Mapping,CivicTech,,Wheelmate,,http://www.wheelmate.com/en/,
,"The world's largest petition platform, empowering people everywhere to create the change they want to see.",Mobilizing,Petitioning,,CivicTech,,Change,,http://www.change.org,
,"Transparentar acciones y decisiones, así como también dar cuenta de los resultados y los desafíos de la gestión pública.",,,,CivicTech,,Del dicho al hecho,,http://deldichoalhecho.cl/,
https://github.com/openplans/shareabouts-api,,,,,,,Shareabouts,https://github.com/openplans/Shareabouts,http://openplans.org/,
,Discuss and share ideas for improving communities and services,Deliberation,,,CivicTech,,Dialogue App,,http://www.dialogue-app.com/info/,
,,Mapping,,,CivicTech,Information Access,CrowdMap Plus (Ushahidi),,https://crowdmap.com/plus/,
,,Mobilizing,,,,,BitMessage,,https://bitmessage.ch/,
,Report potholes,Reporting,Mapping,,CivicTech,,Mapa de baches,,http://www.mapadebaches.com/,
,Participatory Budgeting site from Belo Horizonte (currently - 2015- only for consultive PB),Voting,,,CivicTech,Contribution and Decision Making,Orcamento Participativo Digital,,https://opdigital.pbh.gov.br/,
http://docs.cartodb.com/cartodb-platform.html,"CartoDB is a cloud-based mapping, analysis and visualization engine that lets users build spatial applications for both mobile and the web.",Mapping,Visualizing,,,,CartoDB,,https://cartodb.com,
,Q&A (Questions and Answers) Platform that emphasizes reputation of answerers as experts in their fields. It covers pretty much every topic.,Information,,,General Purpose,Information Access,Quora,,https://www.quora.com/,
,Proyecto de transparencia electoral enfocado a generar información para la ciudadanía sobre los candidatos a las elecciones municipales.,,,,CivicTech,,A quienes elegimos,,http://www.aquieneselegimos.org.py/,
,"We aim to help bridge this growing democratic disconnect, in the belief that there is little wrong with Parliament that a healthy mixture of transparency and public engagement won't fix.",,,,CivicTech,,They work for you,,http://www.theyworkforyou.com/,
,Helps residents improve their neighborhood streets.,Reporting,Mapping,,CivicTech,,Street Bump,,http://streetbump.org/,
,Report earthquakes,Reporting,Mapping,Crisis Management,CivicTech,,Did You Feel It?,,http://earthquake.usgs.gov/earthquakes/dyfi/,
https://api.ammado.com/,"ammado connects nonprofits, companies and individuals through a donations and engagement platform that allows people to: Support causes and Involve their network",Fundraising,,,CivicTech,Communication and Engagement,Ammado,,https://www.ammado.com/,
,"Con Open municipio il governo della città diventa un Governo aperto (Open government), un contesto neutrale dove i cittadini e i loro rappresentanti si confrontano e collaborano su una base paritaria, pur con ruoli e responsabilità diversi.",,,,CivicTech,,Open Municipio,,http://www.openmunicipio.it/,
,Keep tabs on your representatives in Congress or to research pending legislation that might impact your life or business.,,,,CivicTech,,Gov Track,,https://www.govtrack.us/,
,App to make agreements,Deliberation,Voting,,General Purpose,,Appgree,,http://www.appgree.com/,
,A system to create participatory budgeting campaigns heavily focused on the voting of proposals and the configuration of who can vote,Proposal Making,Voting,,General Purpose,Contribution and Decision Making,Participare.io,,http://participare.io/,
,,Mobilizing,,,,,Whatsapp,,https://www.whatsapp.com/faq/en/android/28000012,
,"Participatory Budgeting Platform that goes through 4 fases: collecting problems for the territory (citizens signal problems and map them, other citizens can suggest ideas of solution in comments), creating proposals by delegates (not sure when and how delegates are chosen), evaluating proposals, voting proposals",Deliberation,Proposal Making,Voting,CivicTech,,BiPart,,"http://www.cascina-partecipa.org/
http://monza.bipart.it/",
,"Platform for decision making that allows for delegated voting. Its selling points are that it has a very sophisticated voting system, but demos of the platforms are only available in video format and in italian.",Deliberation,Proposal Making,Voting,CivicTech,Contribution and Decision Making,Liquid Feedback,http://www.public-software-group.org/mercurial,http://liquidfeedback.org/,
,Platform for running competitions to solve local and global problems,Proposal Making,Design Challenges,,CivicTech,,Herox,,https://herox.com/,
,Hacer públicos los datos de la actividad de los diputados federales de México con el fin de que los ciudadanos puedan analizarlos y tener más claro cómo trabajan.,,,,CivicTech,,Tus Diputados,,http://www.tusdiputados.com/,
,Funding platform for all kinds of projects,Fundraising,,,CivicTech,,Indiegogo,,http://www.indiegogo.com/,
,Sitio que facilita el acceso a la información pública,,,,CivicTech,,Congreso Interactivo,,http://www.congresointeractivo.org/,
,"Site de engajamento cívico apartidário que apresenta, de forma simples e resumida, os projetos de lei em tramitação no Congresso Nacional",,,,CivicTech,,Vote na web,,http://www.votenaweb.com.br/,
,Post a challenge and let the community help find solutions. Utilize polls and surveys to quickly gauge community interest and sentiment. Gain valuable insights and analyze important data about your community.,Proposal Making,,,CivicTech,,MindMixer,,http://www.mindmixer.com/,
,Official legislative forum of Paraguay's congress,Legislative Forum Making,,,CivicTech,,Sistema de Información Legislativa,,http://silpy.congreso.gov.py/main.pmf,
,"Is a community of active citizens that seeks to promote the participation of society in politics (note: for the campaigns in it, it is closer to the conservative side of the political spectrum)",Mobilizing,Petitioning,,CivicTech,,CitizenGO,,http://www.citizengo.org/,
,Here you can promote your ideas about climate changes and discuss them with other citizens like you.,Deliberation,Proposal Making,,CivicTech,,Ideal-EU,,http://www.ideal-debate.eu/,
,A platform for discussion of topics and proposal ideas that has an AI system to cluster similar ideas,Deliberation,Proposal Making,,CivicTech,,Your Priorities,https://github.com/d-cent/your-priorities,https://www.yrpri.org/home/world,
,"Assessing what community leaders, politicians, and citizens think about certain issues",Deliberation,,,CivicTech,,Localocracy,,http://www.localocracy.com/,
,Wordpress Plugin for mapping issues in the city,Mapping,,,CivicTech,,Local_In,https://github.com/EcosistemaUrbano/local_in,http://ecosistemaurbano.com/portfolio/localin/,
,USA lifestyle related challenges fostered by its executive office,Mobilizing,Petitioning,,CivicTech,,President's Challenge,,https://www.presidentschallenge.org/,
,Plataforma cívica de datos abiertos de México,,,,CivicTech,,Data MX,,http://datos.codeandomexico.org/,
,"Avaaz empowers millions of people from all walks of life to take action on pressing global, regional and national issues",Mobilizing,Petitioning,,CivicTech,,Avaaz,,http://www.avaaz.org/,
,Instrumento diseñado para monitorear promesas electorales,,,,CivicTech,,Promesometro,,http://www.promesometro.pe/,
http://docs.globaleaks.apiary.io/,Whistleblowing anonymous platform,Reporting,Monitoring,,CivicTech,,GlobalLeaks,https://github.com/globaleaks/GlobaLeaks,https://globaleaks.org/,
,Deployed Social App that uses Crowdmaps API,Mapping,,,CivicTech,,Crowdmap Plus (Usahidi),,https://crowdmap.com/,
,,Mobilizing,Fundraising,Petitioning,CivicTech,Communication and Engagement,Causes,,https://www.causes.com/,
https://agora-ciudadana.readthedocs.org/en/latest/,"Agora voting is a platform to creating elections and managing votin. It supports sms voting and authentication by sms code. support for 4 voting systems 
Plurality at large, Nauru's Borda Count or Borda Dowdall (1/n), Borda Count (traditional), Pairwise (beta-distribution)",Voting,,,CivicTech,Contribution and Decision Making,Agora Voting,https://github.com/agoravoting/agora-ciudadana,"https://agoravoting.com/
https://vota1.agoravoting.com",
,Secure voting server,Voting,,,CivicTech,,CIVITAS,,http://www.cs.cornell.edu/projects/civitas/,
,,Mobilizing,,,,,Virtru,,https://www.virtru.com/,
,"Plataforma informática desarrollada con el propósito de que se constituya en un espacio de información y debate, en el cual los ciudadanos podrán conocer los proyectos de ley presentados por los congresistas, informarse sobre el estado en que se encuentran según la secuencia del procedimiento legislativo y evaluar su probable impacto en el país",,,,CivicTech,,131 Voces,,http://131voces.pe/,
,Ranked voting server,Voting,,,CivicTech,,Condorcet Internet Voting,,http://civs.cs.cornell.edu/,
,Report public service issues,Reporting,Mapping,,CivicTech,,Colab re,,http://www.colab.re/,
https://neighborland.com/docs,"Neighborland empowers people to take action on local issues. It’s a new way for people to share insights, identify resources, and connect with decision makers to make great ideas happen. We are providing neighborhood organizations, economic development groups, and municipalities with a powerfully simple platform to engage with people both online and on the street.",Proposal Making,Deliberation,Design Challenges,CivicTech,Contribution and Decision Making,Neighborland,,https://neighborland.com/,
,O Panela de Pressão é o único aplicativo de mobilizações que permite contato direto com governantes,Mobilizing,Petitioning,,CivicTech,,Panela de Pressao,,http://paneladepressao.meurio.org.br/,
,,Mapping,,,,,MapBox,,https://www.mapbox.com/developers/api/geocoding/,
,Report public service issues,Reporting,Mapping,,CivicTech,,City Sourced,,http://www.citysourced.com/default.aspx,
,Aims to promote transparency and citizen engagement through the analysis and visualisation of information about UK public spending.,,,,CivicTech,,Where Does My Money Go?,,http://wheredoesmymoneygo.org/,
,"Seguire passo passo le attività del singolo parlamentare, le vicende del disegno di legge o della mozione",,,,CivicTech,,Open Parlamento,,http://parlamento17.openpolis.it/,
,Voting used in Your Priorities,Voting,,,,,Open Active Voting,https://github.com/rbjarnason/open-active-voting,,
,"Platform for proposals, discussions and deliberation. ""Assembl empowers hundreds or even thousands of people to create collective intelligence"". ""Assembl enables real co-production of fresh insights and new ideas.""",Proposal Making,Deliberation,,CivicTech,,Assembl,,http://assembl.org/,
,Verifiable online elections. Voting server,Voting,,,CivicTech,Contribution and Decision Making,Helios,https://github.com/benadida/helios-server,https://vote.heliosvoting.org/,
,Plataforma colaborativa de periodismo de datos que mapea quién es quién en los negocios y la política en Chile.,,,,CivicTech,,Poderopedia,,http://www.poderopedia.org/,
,"Create an online petition, and any petition gaining a certain number of signatures within a given time frame is guaranteed an official White House response",Mobilizing,Petitioning,,CivicTech,,We the people,,https://petitions.whitehouse.gov/,
,Find government data online,,,,CivicTech,,DataSF,,https://data.sfgov.org/,
,"RecordTrac is a quick, simple way for you to submit a public records request to the City of Oakland.",,,,CivicTech,,Record Track,,http://records.oaklandnet.com/,
,,Mobilizing,,,,,Protonmail,,https://protonmail.ch/,
,Report public service issues,Reporting,Mapping,,CivicTech,,CityMis,,http://www.reporteunproblema.com/,
,Conocer y comparar las propuestas de candidatos,,,,CivicTech,,Vota Inteligente,,http://votainteligente.cl/,
,"Busca promover la demanda de información a los órganos del Estado, visibilizar y compartir las solicitudes de información que se realizan junto a sus respuestas",,,,CivicTech,,Acceso Inteligente,,https://www.accesointeligente.org,
,Facilitar el acceso a las rendiciones de cuentas presentadas por las partidos políticos y alianzas electorales que compiten por cargos electivos nacionales,,,,CivicTech,,Dinero y Política,,http://dineroypolitica.org/,
,,,,,,,SMS Secure,https://github.com/SMSSecure/SMSSecure,http://smssecure.org/,
,,,,,CivicTech,,NGOAid,,http://ngoaidmap.org/p/about,
,Help people get common public transport problems resolved,Reporting,Mapping,,CivicTech,,Fix my transport,,http://www.fixmytransport.com/,
,"Presenta leyes, permite votarlas y al final muestra un listado de los diputados ordenados por los que más coincidieron con las votaciones del usuario.",,,,CivicTech,,ElegiLegi,,http://elegilegi.org/,
,"Estudio del poder Legislativo y la transparencia, al dar seguimiento, monitoreo, realización de análisis y recomendaciones en la materia.",,,,CivicTech,,Impacto Legislativo,,http://www.impactolegislativo.org.mx/sitio/,
,"Allows participants to quickly grade the state’s performance on a handful of subjects, indicate the importance of those issues to them, and suggest new subjects and evaluate others’ suggestions for issues to be included in the next report card.",Voting,,,CivicTech,Contribution and Decision Making,California Report Card,,http://californiareportcard.org/,
,Simple scheduling tool,Mobilizing,,,General Purpose,,Doodle,,http://doodle.com/,
,,Fundraising,Donations,,CivicTech,Communication and Engagement,Face Acontecer (Nossas Cidades),https://github.com/meurio/facaacontecer,https://apoie.nossascidades.org/,
,,,,,,,TextSecure,https://github.com/whispersystems,https://whispersystems.org/,
http://textbelt.com/,,Mobilizing,,,,,Textbelt,https://github.com/typpo/textbelt,http://textbelt.com/,
,Real-time mapping platform and data collection system created to bring an unprecedented level of transparency to the atrocities of the Lord's Resistance Army.,Reporting,Mapping,Crisis Management,CivicTech,,Crisis Tracker,,http://www.lracrisistracker.com/,
,Making easier for people to access and use as much government information as possible.,,,,CivicTech,,Madison,,http://opengovfoundation.org/the-madison-project/,
,Plataforma para promover y coordinar acciones sustentables,Mobilizing,Proposal Making,,CivicTech,,Greentizen,,http://www.greentizen.com/,
,,,,,CivicTech,,Public Stuff,,http://www.publicstuff.com/,
http://represent.opennorth.ca/api/,API to find the electora representatives of a determined region or administrative area (mainly in Canada),Mapping,Visualizing,Reporting,CivicTech,,Open North Represent,https://github.com/opennorth/represent-canada,http://represent.opennorth.ca/,
,"Ajuda cidadão monitorar a execução dos orçamentos municipal, estadual e federal.",,,,CivicTech,,Para onde foi o meu dinheiro,,http://www.paraondefoiomeudinheiro.org.br/,
,Plataforma para el mapeo participativo y la colaboración ciudadana,Reporting,Mapping,Open Data,CivicTech,,Datea,,http://datea.pe/,
,"Cloud-based online civic engagement platform, oriented to goverments - who pay for it. Its goal is to augment and diversify public participation online, with the stated goal of increasing public trust in their government. Unlike crowd-sourcing, Open Town Hall allows governments to maintain control of the public engagement process, focusing on feedback from constituents",Deliberation,Proposal Making,Mapping,CivicTech,,Open Town Hall (Peak Democracy),,http://www.opentownhall.com/,
,"A platform for making proposals or reporting problems, deliberate around them and come up with ideas to solve them. The deliberation allows three types of contributions: questions, answers and comments. Similar to OpenIDEO, it allows contests to be organized in several phases of proposal and deliberation",Proposal Making,Deliberation,Design Challenges,CivicTech,Contribution and Decision Making,Cidade Democratica,https://github.com/cidadedemocratica,http://www.cidadedemocratica.org.br/,
,,Mobilizing,,,,,Tutanota,,https://tutanota.com/#!home,
https://github.com/City-of-Helsinki/openahjo#openahjo-api,API to access council decisions and agendas from meetings\,Implementing,,,CivicTech,,Open Ahjo,https://github.com/City-of-Helsinki/openahjo,http://dev.hel.fi/apis/openahjo,
http://build.kiva.org/api,Kiva is micro-loans network where people from around the world can give a small loan to others that need it to start leaving behind poverty,Fundraising,Micro Loans,,CivicTech,Communication and Engagement,Kiva - Micro Loans,,http://www.kiva.org/,
,Plataforma constructiva que busca la participación optimista de todos los interesados en hacer de Bogotá una mejor ciudad.,Proposal Making,Deliberation,Voting,CivicTech,,Mi ciudad ideal,,http://www.miciudadideal.com/,
,Reclamar la responsabilidad para palear un hidrante de incendios después de que las nieves.,Reporting,Mapping,,CivicTech,,Adopt a Hydrant,,http://adoptahydrant.org/,
,Aplicación que sirve para visualizar actas de votación y poder ver el comportamiento de los legisladores o bloques a lo largo del tiempo.,,,,CivicTech,,Década Votada,,http://www.decadavotada.com.ar/,
https://github.com/ether/etherpad-lite/wiki/HTTP-API,Collaborative Real-Time Text Editor (open source),Proposal Making,,,General Purpose,,Etherpad,https://github.com/ether/etherpad-lite,http://etherpad.org/,
https://github.com/Crowdtilt/crowdtilt-api-spec/,"Open source crowdfunding platform (github at: 
https://github.com/crowdtilt/crowdtiltopen)",Fundraising,Donations,,CivicTech,Contribution and Decision Making,Crowdfit Open,https://github.com/Crowdtilt/,https://open.crowdtilt.com/,
,Open data challenges for civic innovation in Mexico,Mobilizing,Petitioning,,CivicTech,,CodeandoMexico,,http://codeandomexico.org/,
,Collaborative Real-Time Text Editor (now owned by Dropbox),Proposal Making,,,General Purpose,,HackPad,https://hackpad.com/Hackpad-API-v1.0-k9bpcEeOo2Q,https://hackpad.com/,
,,Deliberation,,,CivicTech,,Osale,,https://www.osale.ee/,
,"Jobs, Volunteering directory for people interested in the nonprofit sector",Volunteering,,,CivicTech,,Idealist,,http://www.idealist.org/,
http://apidocs.sendhub.com/,,Mobilizing,,,,,SendHub,,http://www.sendhub.com/developer,
,Javascript library with many different visualization graphs for data,Visualizing,,,General Purpose,,D3,,http://d3js.org/,
,"Deliberation and voting system centered around legislation, envisioned as a tool for political parties to consult with their constituents",Voting,Deliberation,Proposal Making,CivicTech,Contribution and Decision Making,DemocracyOS,https://github.com/DemocracyOS/app,http://demo.democracyos.org/,
,"Allows anyone to follow legislation in Congress, from bill introduction to floor vote",,,,CivicTech,,Open Congress,,http://www.opencongress.org/,
,,Visualizing,,,,,Vida.io,,https://vida.io/pricing,
,,Mobilizing,,,,,HandStack,,http://www.handstack.com/#about,
,SMS sending API platform,Mobilizing,,,General Purpose,,SMS Platform,https://www.tropo.com/docs/,https://www.tropo.com/,
,Strumento partecipativo per la segnalazione del degrado.,Reporting,Mapping,,CivicTech,,Decoro Urbano,,http://www.decorourbano.org/,
,Report structural issues,Reporting,Mapping,,CivicTech,,SensorR Civico,,http://www.sensorcivico.it/,
,"Plataforma de investigación periodística que detecta entidades automáticamente, realiza análisis semántico y estructura la información para mostrar relaciones de forma visual.",,,,CivicTech,,Analice me,,http://analice.me/,
,"Application that enables users to report physical problems in Washington, DC",Reporting,Mapping,,CivicTech,,311 Online,,http://311.dc.gov/,
,"OpenIDEO is a place where people design better, together for social good. It's an online platform for creative thinkers.",Proposal Making,Deliberation,,CivicTech,,Open IDEO,,http://www.openideo.com/,
,Incentivar a participação da sociedade no debate de temas importantes para o país,Legislative Forum Making,,,CivicTech,,E-democracia,,http://edemocracia.camara.gov.br/,
,Report non-emergency issues in your neighborhood,Reporting,Mapping,,CivicTech,,See Click Fix,,http://seeclickfix.com/,
,"Is a desktop software that allows you to contact people via SMS and ask their feedback in many forms. turns a laptop and a mobile phone or modem into a central communications hub. Once installed, the program enables users to send, receive and manage text messages with groups of people through mobile phones. Because it uses text messages, it does not require an Internet connection and all data lives on the computer, rather than on a server controlled by someone else. Users can send messages to individuals or large groups, and reply individually. It is easy to install and requires little or no training to use",Mobilizing,,,,,FrontLineSMS,https://github.com/frontlinesms,http://www.frontlinesms.com/technologies/download/,
,"Herramienta de información accesible, gratis y confiable sobre la actividad legislativa del Congreso de Guatemala con el fin de promover de promover la transparencia y el debate informado entre la ciudadanía.",,,,CivicTech,,Congreso Transparente,,http://congresotransparente.org/,
,"Fomentar la participación ciudadana en todos los aspectos de la vida pública, tanto en el ámbito civil como en el político. Construir un espacio natural en el que los ciudadanos y las instituciones puedan interrelacionarse y actuar en e-Democracia.",Proposal Making,Deliberation,,CivicTech,,Participa en Andalucía,,http://www.participaenandalucia.net/,
,Report issues on public services,Reporting,Mapping,,CivicTech,,Aportemos,,http://www.aportemos.com.py/,
,Sitio que facilita solicitar información a cualquier institución pública uruguaya.,,,,CivicTech,,Que Sabes,,http://quesabes.org/,
,Plataforma de monitoreo basada en datos públicos y destinada a visualizar la problemática ambiental de la Cuenca Matanza Riachuelo.,,,,CivicTech,,Que pasa riachuelo,,http://quepasariachuelo.org.ar/,
,"Attracts volunteers from around the world to suggest, evaluate, and explore insights about U.S. foreign relations.",Visualizing,Voting,Proposal Making,CivicTech,,Opinion Space,,http://opinion.berkeley.edu/,
,,Mobilizing,,,,,Autistici,,http://www.autistici.org/en/index.html,
,Sistema que busca la calidad y fomenta la eficiencia en las instituciones públicas,,,,CivicTech,,Midamos,,http://www.midamos.org.py/,
,Funding platform for all kinds of projects,Fundraising,,,CivicTech,,Kickstarter,,https://www.kickstarter.com/,
,"Parliamentary and Legislative Information System that aims at making Parliaments more open and accessible to citizens ... virtually allowing them "" inside Parliament"" or ""Bungeni""  the Kiswahili word for ""inside Parliament"".",,,,CivicTech,,Bungeni,,http://www.bungeni.org/,
,Bridges the gap between the input the public wants to provide and the information Members of Congress want and need to receive,Monitoring,,,CivicTech,,Pop Vox,,https://www.popvox.com/,
,Decision making and strategy building.,Deliberation,,,CivicTech,,e-Deliberation,,http://www.e-deliberation.com/,
,"Application created by the publiclab, that help to collect geotag aerial photography and overlays it over a map, interesting for evidence collection and visualization",Mapping,,,CivicTech,,MapKnitter,,http://mapknitter.org/,
,Place for New Yorkers to put their ideas into action by creating projects and building teams to make our city a better place to live,Mobilizing,Volunteering,Scheduling,CivicTech,Communication and Engagement,Change by US,https://github.com/localprojects/Change-By-Us,http://nyc.changeby.us/#start,
,,Mobilizing,,,,,SigAint,,https://www.sigaint.org/,
,A network of non-profits and tools for them,,,,CivicTech,,Non-profit Technology Network,,http://www.nten.org/,
,Report public service issues,Reporting,Mapping,,CivicTech,,PortoAlegre.cc,,http://portoalegre.cc/,
https://core.telegram.org/api,,Mobilizing,,,,,Telegram,https://github.com/zhukov/webogram,https://telegram.org/,
,"Deebase allows users to express their ideas about an issue to be analyzed, facilitates the comparison between different ideas and finally lets the audience decide which is the best answer addressing the topic under evaluation. Gamification of deliberation",Proposal Making,Deliberation,,CivicTech,,Deebase,,http://deeba.se/,
,Promote public voice and enhance public participation in politics by providing relevant information about the National Assembly and Senate's activities.,,,,CivicTech,,Mzalendo,,http://info.mzalendo.com/,
,Este inspector te permite explorar los posibles conflictos entre un área de interés de un parlamentario y su comportamiento legislativo.,,,,CivicTech,,Inspector de Intereses,,http://www.inspectordeintereses.cl/,
,,Deliberation,Voting,,CivicTech,,Participa,https://github.com/joausaga/participa,https://github.com/joausaga/participa,
,Website to collaborative edit Bills,Proposal Making,Deliberation,,CivicTech,,Madison (Keep the web open),,http://keepthewebopen.com/,
https://api.stackexchange.com/,"Q&A platform focused on more technical issues. Several communities exists, centered around topics that range from specific program languages and toosl to more general software development questions",Deliberation,,,General Purpose,,Stack Exchange,,https://stackexchange.com/,
," nonprofit website offering gifts that change the world. Browse our causes to find gifts that make a difference, or search for your favorite nonprofit to make a donation.",Fundraising,Donations,,CivicTech,,Changing the present,,http://www.changingthepresent.org/,
,Web site with three to five items each week that people could vote to try to cut wasteful spending,Deliberation,,,CivicTech,,Youcut,,http://www.majorityleader.gov/YouCut/,
,"Herramienta para explorar los datos de compras a proveedores que publica la Municipalidad de Bahía Blanca, Argentina",,,,CivicTech,,Gasto Público Bahiense,,http://gastopublicobahiense.org/,
,"Plataforma em que qualquer carioca pode criar ideias para melhorar a cidade, contribuir com ideias dos outros, e votar nas suas preferidas.",Proposal Making,Deliberation,Design Challenges,CivicTech,Communication and Engagement,Imagine,https://github.com/meurio/imagine,http://imagine.nossascidades.org/,
,Enable constituents to cosponsor legislation that they support,Mobilizing,Petitioning,,CivicTech,,Citizen Cosponsor,,https://cosponsor.gov/,
,,Mobilizing,,,,,VFemail,,https://vfemail.net/,
http://leafletjs.com/reference.html,,Mapping,Visualizing,,,,Leaflet.js,https://github.com/Leaflet/Leaflet,http://leafletjs.com/,
,,,,,,,PyBossa,,http://pybossa.com/,
,Volunteer to keep a drain clear and report any problems,Volunteering,Mapping,,CivicTech,,Adopt a Drain,,http://adoptadrainoakland.com/,
,Platform to share solutions regarding the things that are working in our neighbourhoods and communities across Australia.,Proposal Making,Deliberation,,CivicTech,,Solved!,,http://www.tacsi.org.au/solved,
,"Application to alert the City of Boston to neighborhood issues such as potholes, damaged signs, and graffiti.",Reporting,Mapping,,CivicTech,,Citizen Connect,,http://www.cityofboston.gov/doit/apps/citizensconnect.asp,
,Ayudar y fomentar la participación ciudadana mediante el monitoreo y la provisión de información sobre el desempeño de los representantes electos.,,,,CivicTech,,Congreso Visible,,http://www.congresovisible.org/,
http://dev.socrata.com/,"Socrata provides API access to a wide range of opendata sources. They also provide a community edition of their server, that can be downloaded and isntalled wherever you want",Visualizing,Mapping,,CivicTech,,Socrata,http://open-source.socrata.com/,http://www.socrata.com/,
https://textizen.com/api/,SMS voting and survey platform,Voting,SMS Voting,,CivicTech,,Textizen,https://github.com/codeforamerica/textizen,https://www.textizen.com,
,"Public idea vibes is the place to go for meaningful engagement with the community – whether its citizens, customers or other like minded individuals",Proposal Making,Deliberation,,CivicTech,,Public ideas vibes,,http://public.ideavibes.com/campaigns/discover,
,,,,,Education,,ScreenIO,,http://www.screen.io/en/,
